Final Project - Auto Theft
…
Our purpose is to determine if the crime rate is the same in every division, if the proportion of crime increases over the years by comparing the proportions of crime in different years of a division, and the correlation between the number of crimes and three factors that we believe might affect the number of crimes (n_crimes). The three predictors (independent variables) we will be investigating will be n_25_to_54 (the number of people in a population ages 25 to 54), pop_2016 (the population in 2016), and n_elders (number of elders in a population). This will be done using the statistical methods of hypothesis testing, bootstrapping, confidence intervals, and linear regression using the data. The information resulting from these methods of statistical testing will be analyzed to determine which locations to station more security personnel.

Objectives

What kind of factors that may impact the crime rate in each Ontarios neighbourhood?

Data Summary

To make the data we used more representative, we only want to look at data from the past 4 years. Thus, we filtered out all observations that occurred before 2014 in the auto_thefts data frame, and we only selected premisetype, occurrenceyear, occurrencehour, Division, Hood_ID and Neighbourhood as our variables.why?

Since we want to find out the overall impact on the crime rate of each neighbourhood, we concern about the factors that are representative and common in all neighbourhoods. Therefore, we remove all the outliers.

Data Summary

## # A tibble: 140 x 2
##    Hood_ID n_crime
##      <dbl>   <int>
##  1       1    1679
##  2       2     292
##  3       3     109
##  4       4     137
##  5       5      96
##  6       6     243
##  7       7     227
##  8       8     124
##  9       9     104
## 10      10      94
## #  with 130 more rows
…
